Group C Project 1 JSON vignette: The one with Jason and temperatures
…
The city, country, latitude, and longitude values correspond to where the data is coming from. Since the good people of Chapel Hill only pulled the Raleigh data, however, all of these values are the same across the 3,239 records were working with. Average temperature is the average temperature of the day, dt is the date the data was recorded, and Average temperature uncertainty corresponds to the measured accuracy of the measurement.

Well convert this data frame to a tibble before we continue, to make the data easier to work with tidyverse.

## # A tibble: 3,239 x 6
##    city  country geopoint$lat  $lon averagetemperat dt    averagetemperat
##    <chr> <chr>          <dbl> <dbl>            <dbl> <chr>            <dbl>
##  1 Rale United         36.3 -79.9            24.5  1785            3.64 
##  2 Rale United         36.3 -79.9            25.0  1863            1.32 
##  3 Rale United         36.3 -79.9            17.6  1869            1.02 
##  4 Rale United         36.3 -79.9             5.79 1762            2.65 
##  5 Rale United         36.3 -79.9            12.3  1768            1.87 
##  6 Rale United         36.3 -79.9            18.9  1758            2.20 
##  7 Rale United         36.3 -79.9             2.54 1817            3.62 
##  8 Rale United         36.3 -79.9            20.1  1880            0.655
##  9 Rale United         36.3 -79.9            13.6  1846            1.15 
## 10 Rale United         36.3 -79.9            14.1  1901            0.41 
## #  with 3,229 more rows

## [1] "Raleigh"

While the dataset that Chapel Hill compiled this data from is much, much larger than the 3000 observations well work with here, the JSON file they created from Berkeley Earth was specifically for Raleigh. So well focus on variations in temperature across different points in time and seasons. First, howevever, several new variables will need to be created in order to execute such analyses.

Creating new variables

With growing concerns about temperature changes over time, having a data set that spans Raleighs history back to when it was under British rule should give us a good idea of how such changes look. Well examine these in terms of season and across years. First well create a variable specifically for each observations year and month, then use those for each observations season and year range.

## # A tibble: 3,239 x 4
##     Year Month Season YearRange
##    <int> <int> <chr>  <chr>    
##  1  1785     6 Summer 1743-1792
##  2  1863     7 Summer 1843-1892
##  3  1869     5 Spring 1843-1892
##  4  1762     2 Winter 1743-1792
##  5  1768     4 Spring 1743-1792
##  6  1758     9 Fall   1743-1792
##  7  1817     2 Winter 1793-1842
##  8  1880     9 Fall   1843-1892
##  9  1846    10 Fall   1843-1892
## 10  1901    10 Fall   1893-1942
## #  with 3,229 more rows
…
